<svg xmlns="http://www.w3.org/2000/svg" width="22" height="12" viewBox="0 0 22 12">
    <path fill="#df2604" d="M20.94 10.837c-.025-.055-.05-.1-.071-.137-.366-.657-1.063-1.463-2.094-2.42l-.022-.022-.01-.01-.011-.012h-.012c-.467-.445-.763-.744-.887-.898-.227-.292-.278-.587-.154-.887.088-.226.417-.704.987-1.434.3-.387.537-.697.712-.93 1.264-1.68 1.812-2.753 1.644-3.22l-.065-.11c-.044-.065-.157-.126-.34-.18-.183-.055-.416-.064-.701-.028l-3.157.022c-.051-.018-.124-.016-.22.006l-.142.033-.055.027L16.3.67c-.037.022-.077.06-.121.115-.044.054-.08.118-.11.191-.343.884-.734 1.705-1.172 2.464-.27.453-.52.845-.746 1.178-.226.332-.416.576-.57.733-.153.157-.292.283-.416.378-.125.095-.22.135-.285.12-.066-.014-.128-.029-.187-.043-.102-.066-.184-.156-.246-.269-.062-.113-.104-.255-.126-.427-.022-.172-.035-.32-.039-.443-.003-.124-.001-.3.006-.526.008-.226.011-.38.011-.46 0-.277.005-.579.016-.903.011-.325.02-.583.028-.772.007-.19.01-.391.01-.603 0-.211-.012-.377-.038-.498-.025-.12-.064-.237-.114-.35-.052-.114-.127-.201-.225-.263-.099-.062-.221-.112-.367-.148-.388-.088-.88-.135-1.48-.142-1.36-.015-2.233.073-2.62.262-.153.08-.292.19-.416.329-.132.16-.15.248-.055.263.438.065.749.222.931.47l.066.132c.051.095.103.263.154.504.05.24.084.507.098.799.037.533.037.99 0 1.369-.036.38-.07.675-.104.887-.033.212-.082.383-.148.515-.066.13-.11.211-.131.24-.022.03-.04.048-.055.055-.095.036-.194.055-.296.055-.102 0-.227-.051-.373-.153-.146-.103-.297-.243-.455-.422-.157-.179-.334-.429-.531-.75s-.402-.7-.614-1.139L5.404 3.1c-.11-.204-.26-.502-.45-.892s-.358-.769-.504-1.134c-.058-.153-.146-.27-.263-.35L4.132.691c-.036-.029-.095-.06-.175-.093-.08-.033-.164-.057-.252-.071L.702.549c-.307 0-.515.07-.625.208L.033.823C.011.859 0 .917 0 .998c0 .08.022.179.066.295.438 1.03.915 2.023 1.43 2.98.515.955.963 1.726 1.343 2.31.38.584.767 1.135 1.162 1.653.394.518.655.85.783.997.128.146.229.255.302.328l.274.263c.175.175.433.385.772.63.34.244.717.485 1.13.722.412.238.893.431 1.44.58.549.15 1.082.21 1.601.182h1.26c.256-.023.45-.103.582-.241l.043-.055c.03-.044.057-.112.082-.203.026-.09.039-.191.039-.3-.008-.315.016-.598.07-.85.055-.251.118-.441.187-.569.07-.128.149-.235.236-.323.088-.087.15-.14.187-.159.036-.018.065-.03.087-.038.175-.058.382-.002.62.17.237.172.46.383.668.635.208.252.459.535.75.849.293.314.549.547.768.7l.22.132c.146.088.336.168.57.241.233.073.437.091.613.055l2.806-.044c.277 0 .493-.046.647-.137.153-.091.244-.192.274-.301.029-.11.03-.234.005-.373-.026-.138-.051-.235-.077-.29z"/>
</svg>
